R Introduction | Data Science Workshops
…
##

Click for Exercise 2.1 Solution

Use filter to extract data for your name (or another name of your choice).

baby_names_george <- filter(baby_names, Name == "George")

Arrange the data you produced in step 1 above by Count. In which year was the name most popular?

arrange(baby_names_george, desc(Count))

## # A tibble: 97 x 4
##    Name   Sex   Count  Year
##    <chr>  <chr> <dbl> <dbl>
##  1 George Boys  14063  1960
##  2 George Boys  13638  1961
##  3 George Boys  12553  1962
##  4 George Boys  12084  1963
##  5 George Boys  11793  1964
##  6 George Boys  10683  1965
##  7 George Boys   9942  1966
##  8 George Boys   9702  1967
##  9 George Boys   9388  1968
## 10 George Boys   9203  1969
## # â€¦ with 87 more rows
…
# Use filter to extract data for your name (or another name of your choice)
# Arrange the data by Count

Click for Exercise 2.2 Solution

Rewrite the solution to Exercise 2.1 using pipes.

# Use filter to extract data for your name (or another name of your choice)
# Arrange the data by Count
baby_names %>% 
    filter(Name == "George") %>%
    arrange(desc(Count))

## # A tibble: 97 x 4
##    Name   Sex   Count  Year
##    <chr>  <chr> <dbl> <dbl>
##  1 George Boys  14063  1960
##  2 George Boys  13638  1961
##  3 George Boys  12553  1962
##  4 George Boys  12084  1963
##  5 George Boys  11793  1964
##  6 George Boys  10683  1965
##  7 George Boys   9942  1966
##  8 George Boys   9702  1967
##  9 George Boys   9388  1968
## 10 George Boys   9203  1969
## # â€¦ with 87 more rows
…
